'(1 1 1 1 1 1 1 0 0 1 1 1 1 0)
'(1 1 1 0 0 0 0 0 0 0 0 0)
'(1 1 1 1 1 1 1 0 0 1 1 1 1 0)
'(1 1 1 0 0 0 0 0 0 0 0 0)
'(1 1 0 1 0 1 0 1 0 1 0 1 0 1 0 1 0 1 0 1 0 1 0)
'(1 1 1 0 1 1 0 1 1)
Number of bits: 84
Number of bits in a fixed-length code for 8 symbols: 108
